{
    "positive": [
        {
            "Row": [1, 2, 3, 4],
            "Column": [1, 2, 3, 4],
            "Value": [1, 2, 3, 4],
            "valueOf": {"1,1": 4, "1,2": 3, "1,3": 2, "1,4": 1, "2,1": 1, "2,2": 2, "2,3": 3, "2,4": 4, "3,1": 3, "3,2": 4, "3,3": 1, "3,4": 2, "4,1": 2, "4,2": 1, "4,3": 4, "4,4": 3},
            "greater_than": [[1, 1, 1, 2], [1, 3, 1, 4],[1, 2, 1, 3], [2, 3, 1, 3]]
        },
        {
            "Row": [1, 2, 3, 4],
            "Column": [1, 2, 3, 4],
            "Value": [1, 2, 3, 4],
            "valueOf": {"1,1": 4, "1,2": 3, "1,3": 2, "1,4": 1, "2,1": 1, "2,2": 2, "2,3": 3, "2,4": 4, "3,1": 3, "3,2": 4, "3,3": 1, "3,4": 2, "4,1": 2, "4,2": 1, "4,3": 4, "4,4": 3},
            "greater_than": [[1, 1, 1, 2], [1, 3, 1, 4],[1, 2, 1, 3], [2, 3, 1, 3]]
        },
        {
            "Row": [1, 2, 3, 4],
            "Column": [1, 2, 3, 4],
            "Value": [1, 2, 3, 4],
            "valueOf": {"1,1": 4, "1,2": 3, "1,3": 2, "1,4": 1, "2,1": 1, "2,2": 2, "2,3": 3, "2,4": 4, "3,1": 3, "3,2": 4, "3,3": 1, "3,4": 2, "4,1": 2, "4,2": 1, "4,3": 4, "4,4": 3},
            "greater_than": [[1, 1, 1, 2], [1, 3, 1, 4],[1, 2, 1, 3], [2, 3, 1, 3]]
        },
        {
            "Row": [1, 2, 3, 4],
            "Column": [1, 2, 3, 4],
            "Value": [1, 2, 3, 4],
            "valueOf": {"1,1": 4, "1,2": 3, "1,3": 2, "1,4": 1, "2,1": 1, "2,2": 2, "2,3": 3, "2,4": 4, "3,1": 3, "3,2": 4, "3,3": 1, "3,4": 2, "4,1": 2, "4,2": 1, "4,3": 4, "4,4": 3},
            "greater_than": [[1, 1, 1, 2], [1, 3, 1, 4],[1, 2, 1, 3], [2, 3, 1, 3]]
        },
        {
            "Row": [1, 2, 3, 4],
            "Column": [1, 2, 3, 4],
            "Value": [1, 2, 3, 4],
            "valueOf": {"1,1": 4, "1,2": 3, "1,3": 2, "1,4": 1, "2,1": 1, "2,2": 2, "2,3": 3, "2,4": 4, "3,1": 3, "3,2": 4, "3,3": 1, "3,4": 2, "4,1": 2, "4,2": 1, "4,3": 4, "4,4": 3},
            "greater_than": [[1, 1, 1, 2], [1, 3, 1, 4],[1, 2, 1, 3], [2, 3, 1, 3]]
        }
    ]
}